Starting Test for 
Transistor testing lab
12:10:42 Sep 28 2018


Please wait for device to measure data until it stops printing *
PWM Init 

* * * * * * * * * * * * * * * * Reading complete, hit anykey to continue print 

Print Column in the following order: 

Duty, PD0, PE1, PD2, PD3 

refV = 3923
0,  8.50,  9.19,  3906.12,  5.50 
1,  45.44,  46.62,  3904.69,  6.19 
2,  81.50,  85.38,  3907.94,  6.19 
3,  120.69,  121.25,  3907.44,  5.81 
4,  159.88,  163.88,  3907.56,  7.00 
5,  197.06,  201.19,  3907.56,  6.94 
6,  239.69,  240.94,  3905.88,  5.69 
7,  280.69,  279.88,  3906.69,  6.06 
8,  319.56,  317.94,  3908.38,  33.44 
9,  360.38,  358.75,  3908.31,  155.50 
10,  400.25,  389.88,  3899.81,  474.25 
11,  436.81,  419.56,  3873.25,  1026.75 
12,  477.12,  446.88,  3834.12,  1758.00 
13,  516.12,  467.31,  3793.12,  2603.06 
14,  554.19,  486.69,  3753.56,  3505.38 
15,  595.31,  506.69,  3707.12,  4095.00 
16,  635.06,  525.44,  3661.19,  2814.19 
17,  673.25,  540.12,  3610.94,  2823.06 
18,  714.69,  558.19,  3562.06,  2823.31 
19,  752.88,  573.25,  3519.00,  2823.12 
20,  794.56,  587.81,  3480.69,  2823.75 
21,  831.88,  599.00,  3451.44,  2823.56 
22,  869.62,  608.31,  3425.69,  2823.38 
23,  907.56,  616.94,  3404.44,  2823.12 
24,  943.44,  624.00,  3385.25,  2823.50 
25,  979.44,  631.06,  3370.94,  2822.94 
26,  1020.19,  638.44,  3352.69,  2823.50 
27,  1068.00,  644.38,  3335.31,  2823.31 
28,  1107.62,  649.88,  3318.69,  2823.44 
29,  1147.00,  656.62,  3313.88,  2823.25 
30,  1187.56,  661.56,  3305.50,  2823.75 
31,  1225.56,  666.69,  3293.00,  2823.62 
32,  1262.69,  670.75,  3280.62,  2823.44 
33,  1300.50,  675.62,  3269.56,  2823.44 
34,  1337.75,  679.50,  3259.62,  2823.50 
35,  1375.38,  684.19,  3249.38,  2823.94 
36,  1412.69,  687.75,  3239.44,  2823.25 
37,  1462.12,  691.31,  3226.75,  2823.44 
38,  1499.44,  694.44,  3218.06,  2823.44 
39,  1539.94,  699.94,  3211.12,  2823.62 
40,  1579.31,  701.94,  3202.56,  2823.50 
41,  1617.56,  706.38,  3195.12,  2823.50 
42,  1654.62,  707.88,  3186.88,  2823.19 
43,  1691.12,  711.62,  3178.81,  2823.25 
44,  1727.75,  717.12,  3170.38,  2823.38 
45,  1766.62,  721.25,  3164.50,  2823.31 
46,  1804.81,  721.88,  3155.56,  2823.44 
47,  1847.38,  728.62,  3146.31,  2823.81 
48,  1889.50,  730.75,  3140.25,  2823.69 
49,  1932.12,  735.44,  3130.94,  2824.06 
50,  1971.19,  736.94,  3123.69,  2823.62 
51,  2009.75,  739.44,  3116.44,  2823.94 
52,  2048.25,  741.38,  3111.38,  2823.75 
53,  2083.75,  744.06,  3104.88,  2823.69 
54,  2121.25,  752.56,  3098.81,  2823.56 
55,  2157.81,  754.81,  3090.50,  2823.25 
56,  2197.25,  755.81,  3085.06,  2823.81 
57,  2238.75,  758.31,  3076.50,  2823.19 
58,  2281.69,  759.88,  3069.31,  2823.88 
59,  2321.88,  762.25,  3063.25,  2823.56 
60,  2361.00,  765.25,  3057.81,  2823.94 
61,  2395.00,  765.69,  3051.25,  2823.75 
62,  2433.50,  768.88,  3046.31,  2823.69 
63,  2469.88,  770.88,  3042.19,  2823.38 
64,  2512.25,  773.44,  3035.88,  2823.62 
65,  2552.44,  776.19,  3030.25,  2823.50 
66,  2589.25,  778.56,  3022.81,  2823.88 
67,  2631.19,  781.56,  3014.56,  2823.81 
68,  2672.19,  782.19,  3008.31,  2823.75 
69,  2713.19,  786.50,  3001.38,  2824.00 
70,  2752.19,  788.19,  2993.94,  2824.19 
71,  2787.38,  790.31,  2992.31,  2823.81 
72,  2827.75,  792.50,  2993.31,  2823.94 
73,  2863.12,  795.19,  2988.25,  2823.88 
74,  2906.88,  797.44,  2981.69,  2824.12 
75,  2942.19,  798.62,  2975.38,  2823.62 
76,  2984.19,  801.94,  2968.62,  2824.25 
77,  3022.12,  801.75,  2964.31,  2823.44 
78,  3062.88,  804.81,  2955.19,  2823.88 
79,  3103.88,  807.06,  2951.12,  2823.81 
80,  3143.12,  810.62,  2945.69,  2824.25 
81,  3180.44,  812.38,  2941.44,  2824.00 
82,  3219.06,  814.06,  2935.38,  2824.25 
83,  3255.44,  816.38,  2931.50,  2824.19 
84,  3294.38,  817.44,  2928.38,  2823.88 
85,  3333.56,  818.88,  2923.50,  2824.25 
86,  3371.31,  819.31,  2918.44,  2824.19 
87,  3411.50,  820.56,  2910.00,  2824.44 
88,  3451.25,  822.19,  2904.62,  2824.00 
89,  3492.44,  827.50,  2898.19,  2824.44 
90,  3532.56,  830.44,  2894.38,  2824.12 
91,  3568.38,  831.88,  2890.31,  2824.19 
92,  3608.00,  835.94,  2887.81,  2824.38 
93,  3646.75,  837.19,  2883.88,  2824.31 
94,  3687.69,  839.31,  2880.31,  2824.44 
95,  3725.50,  838.88,  2876.00,  2824.12 
96,  3765.25,  842.12,  2870.81,  2824.38 
97,  3806.38,  843.44,  2867.62,  2824.25 
98,  3844.12,  844.25,  2861.12,  2824.25 
99,  3877.56,  846.56,  2857.44,  2824.56 
100,  3879.06,  845.25,  2859.50,  2823.94 
