Starting Test for 
Transistor testing lab
12:10:42 Sep 28 2018


Please wait for device to measure data until it stops printing *
PWM Init 

* * * * * * * * * * * * * * * * Reading complete, hit anykey to continue print 

Print Column in the following order: 

Duty, PD0, PE1, PD2, PD3 

refV = 3946
0,  6.62,  4.75,  3905.06,  2.56 
1,  42.62,  42.88,  3905.44,  3.19 
2,  77.00,  80.62,  3906.25,  2.00 
3,  117.00,  119.12,  3906.06,  2.81 
4,  154.19,  158.00,  3907.12,  2.06 
5,  195.06,  196.88,  3906.06,  3.62 
6,  236.44,  235.94,  3906.88,  1.88 
7,  277.25,  276.81,  3906.06,  2.56 
8,  316.00,  314.19,  3908.12,  2.56 
9,  356.75,  358.31,  3907.25,  3.44 
10,  396.81,  396.00,  3910.38,  2.75 
11,  434.31,  436.00,  3908.44,  2.19 
12,  474.56,  477.38,  3842.44,  58.00 
13,  513.19,  507.19,  3588.88,  279.62 
14,  550.94,  533.00,  3091.25,  733.31 
15,  590.00,  552.25,  2439.00,  1322.44 
16,  628.81,  569.81,  1709.50,  1964.75 
17,  670.31,  587.00,  961.75,  2608.25 
18,  710.00,  598.69,  486.62,  3039.06 
19,  750.44,  607.12,  336.56,  3177.62 
20,  791.38,  612.25,  244.88,  3263.31 
21,  829.38,  615.88,  199.62,  3307.75 
22,  866.38,  616.62,  179.06,  3329.81 
23,  904.56,  619.38,  168.75,  3343.19 
24,  940.06,  619.62,  159.75,  3354.44 
25,  976.94,  620.06,  152.31,  3362.94 
26,  1019.50,  621.06,  146.94,  3372.81 
27,  1065.56,  621.62,  140.44,  3381.62 
28,  1107.19,  623.69,  135.31,  3387.25 
29,  1146.56,  623.31,  130.94,  3393.31 
30,  1186.81,  625.06,  130.31,  3399.06 
31,  1222.75,  624.56,  128.88,  3406.00 
32,  1262.19,  625.69,  130.12,  3409.50 
33,  1298.44,  626.06,  127.81,  3418.19 
34,  1336.25,  627.00,  125.50,  3421.81 
35,  1374.94,  627.69,  124.19,  3427.12 
36,  1413.88,  628.38,  121.00,  3431.88 
37,  1464.25,  628.81,  119.88,  3436.94 
38,  1502.38,  629.12,  117.06,  3442.25 
39,  1540.94,  629.81,  114.38,  3446.69 
40,  1580.94,  630.00,  111.00,  3451.25 
41,  1618.25,  629.75,  113.00,  3455.56 
42,  1656.56,  628.25,  113.38,  3461.00 
43,  1692.62,  628.50,  111.94,  3463.94 
44,  1730.88,  633.31,  112.31,  3469.69 
45,  1768.00,  633.50,  110.38,  3474.81 
46,  1809.94,  634.75,  110.75,  3477.62 
47,  1849.38,  634.44,  108.38,  3483.25 
48,  1893.06,  636.44,  108.00,  3488.12 
49,  1933.06,  634.88,  107.00,  3491.12 
50,  1974.81,  634.94,  106.56,  3495.31 
51,  2011.50,  634.81,  105.44,  3499.81 
52,  2051.44,  635.44,  105.19,  3505.12 
53,  2089.38,  636.06,  106.06,  3507.06 
54,  2127.62,  640.56,  105.00,  3512.38 
55,  2164.06,  644.12,  104.31,  3517.94 
56,  2202.69,  641.94,  102.38,  3522.12 
57,  2245.06,  642.62,  103.12,  3525.12 
58,  2287.06,  641.19,  101.81,  3529.19 
59,  2327.12,  641.38,  105.25,  3532.12 
60,  2366.75,  641.00,  102.31,  3538.06 
61,  2403.06,  640.94,  103.44,  3540.94 
62,  2440.81,  642.06,  102.12,  3542.75 
63,  2478.81,  641.94,  101.06,  3549.38 
64,  2519.88,  641.38,  99.31,  3553.62 
65,  2558.62,  641.94,  99.75,  3556.38 
66,  2598.38,  643.06,  99.56,  3560.25 
67,  2640.19,  643.62,  99.38,  3564.75 
68,  2680.94,  643.25,  96.69,  3566.88 
69,  2722.56,  643.69,  98.94,  3572.75 
70,  2761.31,  644.31,  98.44,  3575.88 
71,  2799.31,  644.69,  99.69,  3579.50 
72,  2836.88,  645.62,  100.62,  3584.38 
73,  2874.00,  645.31,  99.75,  3588.81 
74,  2917.00,  646.81,  100.38,  3593.06 
75,  2955.19,  646.06,  99.44,  3595.81 
76,  2994.06,  646.31,  97.88,  3600.25 
77,  3034.88,  646.44,  97.38,  3605.44 
78,  3074.50,  647.38,  96.44,  3607.12 
79,  3116.00,  647.00,  96.50,  3611.12 
80,  3157.25,  648.44,  97.12,  3615.75 
81,  3192.88,  649.31,  97.00,  3617.44 
82,  3233.25,  649.19,  96.06,  3623.81 
83,  3270.19,  650.00,  96.56,  3625.00 
84,  3308.88,  649.56,  96.06,  3632.50 
85,  3347.12,  649.12,  96.19,  3634.44 
86,  3387.00,  648.75,  95.81,  3637.75 
87,  3428.50,  647.62,  94.69,  3641.94 
88,  3467.81,  647.75,  93.94,  3644.81 
89,  3506.12,  650.62,  91.94,  3647.69 
90,  3549.56,  652.75,  92.56,  3653.69 
91,  3585.44,  652.88,  93.69,  3655.88 
92,  3626.94,  655.88,  95.69,  3660.62 
93,  3663.44,  655.12,  95.94,  3665.19 
94,  3704.50,  655.06,  95.25,  3667.75 
95,  3746.44,  654.88,  95.31,  3671.81 
96,  3784.50,  655.94,  95.00,  3676.62 
97,  3824.94,  655.81,  96.19,  3676.62 
98,  3862.94,  655.69,  94.62,  3683.69 
99,  3890.69,  655.88,  95.44,  3684.81 
100,  3896.62,  655.50,  94.69,  3688.31 
