Starting Test for 
Transistor testing lab
12:10:42 Sep 28 2018


Please wait for device to measure data until it stops printing *
PWM Init 

* * * * * * * * * * * * * * * * Reading complete, hit anykey to continue print 

Print Column in the following order: 

Duty, PD0, PE1, PD2, PD3 

refV = 3948
0,  5.31,  5.88,  3734.94,  3417.12 
1,  43.19,  45.00,  3738.62,  3421.00 
2,  79.75,  85.50,  3739.06,  3418.06 
3,  120.31,  120.88,  3738.88,  3420.31 
4,  158.06,  163.50,  3737.69,  3416.50 
5,  198.00,  202.50,  3738.25,  3418.38 
6,  236.69,  242.06,  3737.56,  3415.88 
7,  279.88,  281.38,  3736.50,  3417.00 
8,  318.38,  319.38,  3736.94,  3415.69 
9,  358.62,  358.38,  3737.62,  3416.75 
10,  398.50,  399.56,  3737.25,  3413.12 
11,  437.25,  444.06,  3734.56,  3414.38 
12,  475.38,  481.69,  3735.88,  3411.31 
13,  515.62,  521.31,  3733.38,  3413.25 
14,  553.38,  559.62,  3730.44,  3407.12 
15,  593.69,  599.50,  3727.56,  3407.19 
16,  631.50,  636.38,  3723.56,  3400.56 
17,  671.31,  676.75,  3717.06,  3397.25 
18,  713.19,  715.88,  3707.50,  3386.38 
19,  754.12,  755.69,  3688.56,  3370.69 
20,  792.00,  793.50,  3622.81,  3308.25 
21,  832.44,  833.00,  3295.94,  3011.81 
22,  869.06,  871.81,  2845.00,  2595.06 
23,  906.44,  910.62,  2409.00,  2196.81 
24,  943.69,  950.50,  2002.12,  1820.75 
25,  981.19,  988.38,  1635.88,  1486.69 
26,  1022.88,  1028.81,  1293.88,  1172.00 
27,  1066.00,  1068.12,  992.38,  898.62 
28,  1106.69,  1107.12,  739.44,  666.81 
29,  1147.75,  1146.50,  532.44,  478.94 
30,  1186.56,  1185.75,  379.00,  330.44 
31,  1227.25,  1225.38,  256.19,  218.75 
32,  1264.81,  1264.00,  167.38,  137.88 
33,  1301.75,  1304.19,  106.88,  82.25 
34,  1339.06,  1342.12,  67.81,  46.44 
35,  1377.19,  1382.25,  41.12,  23.94 
36,  1425.00,  1421.62,  25.62,  9.88 
37,  1463.50,  1461.69,  14.38,  4.31 
38,  1501.25,  1499.44,  9.62,  4.44 
39,  1542.00,  1540.06,  5.38,  3.88 
40,  1582.38,  1579.12,  6.69,  5.50 
41,  1621.38,  1617.31,  5.75,  3.81 
42,  1660.69,  1656.81,  6.81,  5.50 
43,  1697.25,  1697.12,  6.75,  5.25 
44,  1734.25,  1738.75,  8.00,  5.06 
45,  1773.50,  1776.81,  8.44,  5.12 
46,  1810.88,  1813.00,  8.00,  4.69 
47,  1853.12,  1854.81,  7.25,  4.50 
48,  1894.94,  1895.56,  7.44,  6.38 
49,  1937.88,  1936.00,  7.12,  5.44 
50,  1977.75,  1973.44,  7.44,  5.25 
51,  2017.56,  2012.19,  7.81,  5.44 
52,  2055.19,  2049.81,  7.06,  5.06 
53,  2094.06,  2094.44,  8.81,  5.25 
54,  2129.81,  2136.31,  7.25,  4.56 
55,  2168.25,  2173.44,  8.50,  4.44 
56,  2207.56,  2211.56,  8.94,  6.88 
57,  2249.12,  2251.12,  8.19,  5.06 
58,  2290.75,  2289.31,  8.25,  6.06 
59,  2331.25,  2329.00,  8.06,  4.00 
60,  2371.81,  2366.69,  9.06,  5.50 
61,  2409.75,  2406.38,  11.06,  4.50 
62,  2446.19,  2444.00,  10.75,  6.06 
63,  2482.19,  2484.88,  9.06,  4.12 
64,  2521.06,  2524.06,  11.25,  5.56 
65,  2562.19,  2564.25,  10.88,  4.62 
66,  2601.75,  2602.50,  10.00,  5.81 
67,  2642.31,  2641.88,  8.88,  3.00 
68,  2685.94,  2681.75,  7.88,  6.31 
69,  2724.69,  2721.69,  9.12,  4.88 
70,  2766.12,  2759.38,  7.12,  5.06 
71,  2802.69,  2799.94,  13.06,  3.81 
72,  2842.50,  2838.69,  13.69,  6.12 
73,  2877.75,  2877.88,  15.25,  4.44 
74,  2918.06,  2916.00,  12.81,  4.88 
75,  2957.69,  2957.06,  13.50,  3.62 
76,  2996.69,  2994.56,  11.69,  5.31 
77,  3038.38,  3037.12,  12.38,  4.12 
78,  3080.00,  3074.94,  9.88,  5.44 
79,  3119.50,  3115.19,  11.69,  4.12 
80,  3160.44,  3153.31,  11.19,  5.69 
81,  3198.31,  3195.06,  12.25,  4.62 
82,  3237.81,  3231.81,  11.25,  6.38 
83,  3275.25,  3272.88,  13.62,  4.88 
84,  3314.06,  3309.12,  11.75,  6.50 
85,  3350.88,  3349.25,  13.00,  4.88 
86,  3393.19,  3388.56,  12.62,  6.25 
87,  3432.25,  3428.31,  12.50,  4.50 
88,  3472.62,  3465.31,  11.81,  5.50 
89,  3510.81,  3504.81,  11.88,  4.19 
90,  3554.44,  3547.62,  10.12,  6.81 
91,  3589.44,  3591.56,  11.81,  3.62 
92,  3629.56,  3627.12,  12.19,  5.06 
93,  3668.31,  3667.75,  14.81,  3.62 
94,  3712.31,  3706.12,  13.88,  6.25 
95,  3749.00,  3746.56,  15.94,  4.44 
96,  3789.44,  3783.88,  15.12,  7.69 
97,  3826.81,  3825.62,  14.69,  3.50 
98,  3870.31,  3862.69,  13.81,  6.31 
99,  3905.88,  3904.62,  14.88,  3.75 
100,  3927.94,  3916.12,  15.06,  4.44 
