Starting Test for 
Transistor testing lab
12:10:42 Sep 28 2018


Please wait for device to measure data until it stops printing *
PWM Init 

* * * * * * * * * * * * * * * * Reading complete, hit anykey to continue print 

Print Column in the following order: 

Duty, PD0, PE1, PD2, PD3 

refV = 3948
0,  5.62,  5.25,  0.38,  4.81 
1,  41.38,  41.62,  0.06,  4.44 
2,  79.31,  81.00,  0.25,  3.38 
3,  117.69,  117.88,  0.31,  4.44 
4,  157.31,  159.81,  0.31,  4.50 
5,  193.94,  197.25,  0.25,  5.19 
6,  235.62,  237.06,  0.12,  3.56 
7,  274.94,  276.81,  0.81,  4.00 
8,  316.94,  315.62,  1.44,  4.69 
9,  356.38,  355.31,  2.69,  5.69 
10,  395.94,  395.38,  1.69,  4.44 
11,  434.00,  439.44,  2.38,  4.25 
12,  473.94,  478.12,  2.75,  4.50 
13,  513.31,  517.75,  2.19,  4.94 
14,  551.38,  553.38,  2.31,  5.56 
15,  590.88,  591.44,  2.06,  5.62 
16,  629.44,  631.44,  2.38,  5.19 
17,  669.25,  671.31,  2.12,  4.00 
18,  711.00,  712.81,  2.06,  5.62 
19,  752.12,  753.31,  2.38,  5.75 
20,  792.00,  792.38,  2.81,  5.88 
21,  830.31,  830.69,  3.25,  5.06 
22,  869.56,  871.62,  3.50,  5.12 
23,  905.75,  907.88,  4.19,  5.38 
24,  943.56,  946.56,  3.62,  4.81 
25,  979.88,  983.94,  5.19,  5.38 
26,  1023.88,  1024.81,  6.38,  6.75 
27,  1066.94,  1065.75,  6.31,  4.69 
28,  1106.62,  1105.69,  6.19,  4.62 
29,  1146.94,  1147.31,  9.81,  3.69 
30,  1188.06,  1187.88,  12.69,  4.31 
31,  1226.12,  1227.12,  13.69,  4.12 
32,  1265.56,  1266.12,  14.44,  4.88 
33,  1302.19,  1302.88,  17.75,  5.12 
34,  1338.44,  1339.38,  18.75,  4.19 
35,  1377.38,  1378.19,  22.88,  4.56 
36,  1426.12,  1419.00,  23.31,  5.00 
37,  1464.38,  1458.06,  24.94,  4.31 
38,  1502.31,  1501.56,  26.00,  4.00 
39,  1542.06,  1542.06,  26.94,  4.56 
40,  1582.00,  1582.50,  33.44,  4.38 
41,  1621.12,  1621.00,  35.50,  4.62 
42,  1660.94,  1659.88,  38.69,  5.25 
43,  1696.94,  1697.31,  41.50,  5.25 
44,  1734.44,  1736.31,  43.94,  4.31 
45,  1773.38,  1772.62,  47.62,  6.00 
46,  1811.31,  1809.38,  48.31,  4.69 
47,  1853.62,  1850.62,  51.62,  5.62 
48,  1895.00,  1894.50,  52.75,  3.94 
49,  1937.81,  1937.25,  56.31,  6.50 
50,  1978.44,  1976.50,  58.50,  5.00 
51,  2016.44,  2015.00,  61.81,  4.81 
52,  2055.88,  2053.06,  63.62,  4.81 
53,  2092.44,  2092.25,  66.00,  4.94 
54,  2130.62,  2132.94,  69.38,  4.12 
55,  2168.06,  2167.81,  71.94,  5.38 
56,  2208.00,  2205.94,  74.81,  5.12 
57,  2248.94,  2246.75,  77.94,  4.56 
58,  2290.25,  2288.31,  80.19,  3.50 
59,  2330.94,  2327.44,  81.69,  4.00 
60,  2372.38,  2371.06,  85.88,  4.75 
61,  2408.56,  2406.75,  89.12,  4.31 
62,  2446.25,  2446.12,  91.69,  4.75 
63,  2481.94,  2482.06,  94.31,  4.44 
64,  2521.69,  2521.06,  98.00,  3.88 
65,  2564.19,  2558.19,  99.44,  5.56 
66,  2600.38,  2597.88,  101.38,  2.94 
67,  2644.25,  2639.00,  103.81,  6.25 
68,  2685.12,  2680.62,  105.31,  3.38 
69,  2726.50,  2722.00,  108.00,  4.50 
70,  2764.88,  2762.31,  108.88,  3.25 
71,  2804.81,  2800.75,  116.94,  6.25 
72,  2841.44,  2839.12,  120.62,  2.81 
73,  2880.62,  2875.69,  125.88,  5.00 
74,  2918.19,  2914.94,  125.44,  4.12 
75,  2958.81,  2951.69,  126.88,  4.62 
76,  2997.81,  2994.38,  130.19,  4.44 
77,  3038.56,  3032.31,  130.94,  5.31 
78,  3079.75,  3075.25,  134.06,  4.69 
79,  3121.62,  3116.12,  136.88,  6.06 
80,  3160.06,  3155.69,  140.25,  4.94 
81,  3198.38,  3194.06,  141.62,  4.88 
82,  3235.56,  3232.25,  144.19,  3.44 
83,  3276.94,  3270.12,  147.19,  6.44 
84,  3312.31,  3308.94,  151.00,  3.00 
85,  3352.25,  3348.38,  153.94,  4.94 
86,  3391.19,  3387.44,  156.69,  4.75 
87,  3432.31,  3425.75,  157.81,  4.81 
88,  3472.31,  3465.38,  161.50,  4.44 
89,  3513.00,  3503.44,  162.12,  4.50 
90,  3551.88,  3548.38,  165.06,  3.88 
91,  3589.69,  3589.50,  165.94,  3.94 
92,  3632.00,  3628.88,  172.44,  4.88 
93,  3669.56,  3665.44,  176.19,  3.75 
94,  3710.81,  3705.00,  179.75,  5.31 
95,  3750.25,  3742.88,  180.56,  3.38 
96,  3787.06,  3782.94,  184.88,  4.12 
97,  3830.06,  3822.94,  187.12,  3.94 
98,  3868.06,  3861.38,  189.38,  3.38 
99,  3908.12,  3902.50,  193.19,  5.38 
100,  3928.62,  3918.00,  197.06,  5.62 
